{
    "KPlugin": {
        "Authors": [
            {
                "Email": "aix.m@outlook.com",
                "Name": "Aditya Mehra",
                "Name[ar]": "أديتيا ميهرا",
                "Name[az]": "Aditya Mehra",
                "Name[bg]": "Aditya Mehra",
                "Name[ca@valencia]": "Aditya Mehra",
                "Name[ca]": "Aditya Mehra",
                "Name[cs]": "Aditya Mehra",
                "Name[da]": "Aditya Mehra",
                "Name[de]": "Aditya Mehra",
                "Name[el]": "Aditya Mehra",
                "Name[en_GB]": "Aditya Mehra",
                "Name[es]": "Aditya Mehra",
                "Name[et]": "Aditya Mehra",
                "Name[eu]": "Aditya Mehra",
                "Name[fi]": "Aditya Mehra",
                "Name[fr]": "Aditya Mehra",
                "Name[gl]": "Aditya Mehra",
                "Name[hu]": "Aditya Mehra",
                "Name[ia]": "Aditya Mehra",
                "Name[id]": "Aditya Mehra",
                "Name[ie]": "Aditya Mehra",
                "Name[is]": "Aditya Mehra",
                "Name[it]": "Aditya Mehra",
                "Name[ka]": "Aditya Mehra",
                "Name[ko]": "Aditya Mehra",
                "Name[lt]": "Aditya Mehra",
                "Name[nl]": "Aditya Mehra",
                "Name[nn]": "Aditya Mehra",
                "Name[pl]": "Aditya Mehra",
                "Name[pt]": "Aditya Mehra",
                "Name[pt_BR]": "Aditya Mehra",
                "Name[ro]": "Aditya Mehra",
                "Name[ru]": "Aditya Mehra",
                "Name[sk]": "Aditya Mehra",
                "Name[sl]": "Aditya Mehra",
                "Name[sv]": "Aditya Mehra",
                "Name[tr]": "Aditya Mehra",
                "Name[uk]": "Aditya Mehra",
                "Name[x-test]": "xxAditya Mehraxx",
                "Name[zh_CN]": "Aditya Mehra",
                "Name[zh_TW]": "Aditya Mehra"
            }
        ],
        "Description": "Bigscreen Plugin",
        "Description[ar]": "محلق الشاشة الكبيرة",
        "Description[az]": "Böyük Ekran Qoşması",
        "Description[bg]": "Bigscreen приставка",
        "Description[ca@valencia]": "Connector de la Bigscreen",
        "Description[ca]": "Connector de la Bigscreen",
        "Description[cs]": "Modul pro velkou obrazovku",
        "Description[da]": "Plugin til storskærm",
        "Description[de]": "Bigscreen-Modul",
        "Description[el]": "Πρόσθετο Bigscreen",
        "Description[en_GB]": "Bigscreen Plugin",
        "Description[es]": "Complemento Bigscreen",
        "Description[et]": "Suurekraani plugin",
        "Description[eu]": "Bigscreen plugina",
        "Description[fi]": "Bigscreen-liitännäinen",
        "Description[fr]": "Module externe « Bigscreen »",
        "Description[gl]": "Complemento de Bigscreen",
        "Description[hu]": "Bigscreen bővítmény",
        "Description[ia]": "Plugin de BigScreen",
        "Description[id]": "Plugin Bigscreen",
        "Description[is]": "Bigscreen-tengiviðbót",
        "Description[it]": "Estensione Bigscreen",
        "Description[ka]": "დიდი ეკრანის დამატება",
        "Description[ko]": "큰 화면 플러그인",
        "Description[lt]": "Bigscreen papildinys",
        "Description[nl]": "Bigscreen plug-in",
        "Description[nn]": "Bigscreen-tillegg",
        "Description[pl]": "Wtyczka Dużego Ekranu",
        "Description[pt]": "'Plugin' de Ecrã Grande",
        "Description[pt_BR]": "Plugin de tela grande",
        "Description[ro]": "Extensia „ecran mare”",
        "Description[ru]": "Модуль Bigscreen",
        "Description[sk]": "Doplnok veľkej obrazovky",
        "Description[sl]": "Vtičnik velikega zaslona",
        "Description[sv]": "Insticksprogram för storskärm",
        "Description[tr]": "Bigscreen Eklentisi",
        "Description[uk]": "Додаток для великих екранів",
        "Description[x-test]": "xxBigscreen Pluginxx",
        "Description[zh_CN]": "大屏幕插件",
        "Description[zh_TW]": "全覽螢幕附加元件",
        "EnabledByDefault": true,
        "Icon": "tvtrusted",
        "Id": "kdeconnect_bigscreen",
        "License": "GPL",
        "Name": "Bigscreen",
        "Name[ar]": "شاشة كبيرة",
        "Name[az]": "Böyük Ekran",
        "Name[bg]": "Bigscreen",
        "Name[ca@valencia]": "Bigscreen",
        "Name[ca]": "Bigscreen",
        "Name[cs]": "Velká obrazovka",
        "Name[da]": "Storskærm",
        "Name[de]": "Bigscreen",
        "Name[el]": "Bigscreen",
        "Name[en_GB]": "Bigscreen",
        "Name[es]": "Bigscreen",
        "Name[et]": "Suurekraan",
        "Name[eu]": "Bigscreen",
        "Name[fi]": "Bigscreen",
        "Name[fr]": "Bigscreen",
        "Name[gl]": "Bigscreen",
        "Name[hu]": "Bigscreen",
        "Name[ia]": "Bigscreen (Schermo grande)",
        "Name[id]": "Bigscreen",
        "Name[is]": "Bigscreen",
        "Name[it]": "Bigscreen",
        "Name[ka]": "დიდი ეკრანი",
        "Name[ko]": "큰 화면",
        "Name[lt]": "Bigscreen",
        "Name[nl]": "Bigscreen",
        "Name[nn]": "Bigscreen",
        "Name[pl]": "Duży Ekran",
        "Name[pt]": "Ecrã grande",
        "Name[pt_BR]": "Tela grande",
        "Name[ro]": "Ecran mare",
        "Name[ru]": "Bigscreen",
        "Name[sk]": "Veľká obrazovka",
        "Name[sl]": "Veliki zaslon",
        "Name[sv]": "Storskärm",
        "Name[tr]": "Büyük Ekran",
        "Name[uk]": "Великий екран",
        "Name[x-test]": "xxBigscreenxx",
        "Name[zh_CN]": "大屏幕",
        "Name[zh_TW]": "全覽螢幕",
        "ServiceTypes": [
            "KdeConnect/Plugin"
        ],
        "Version": "0.1",
        "Website": "https://aiix.tk"
    },
    "X-KdeConnect-OutgoingPacketType": [
        "kdeconnect.mousepad.request",
        "kdeconnect.bigscreen.stt"
    ],
    "X-KdeConnect-SupportedPacketType": [
        "kdeconnect.bigscreen.stt"
    ]
}
